module github.com/OybekNarzullaev/go-blog-app

go 1.17

require (
	github.com/KyleBanks/depth v1.2.1 // indirect
	github.com/PuerkitoBio/purell v1.1.1 // indirect
	github.com/PuerkitoBio/urlesc v0.0.0-20170810143723-de5bf2ad4578 // indirect
	github.com/cpuguy83/go-md2man/v2 v2.0.1 // indirect
	github.com/dgrijalva/jwt-go v3.2.0+incompatible // indirect
	github.com/fsnotify/fsnotify v1.5.1 // indirect
	github.com/ghodss/yaml v1.0.0 // indirect
	github.com/gin-contrib/cors v1.3.1 // indirect
	github.com/gin-contrib/sse v0.1.0 // indirect
	github.com/gin-gonic/gin v1.7.7 // indirect
	github.com/go-openapi/jsonpointer v0.19.5 // indirect
	github.com/go-openapi/jsonreference v0.19.6 // indirect
	github.com/go-openapi/spec v0.20.4 // indirect
	github.com/go-openapi/swag v0.21.1 // indirect
	github.com/go-playground/locales v0.14.0 // indirect
	github.com/go-playground/universal-translator v0.18.0 // indirect
	github.com/go-playground/validator/v10 v10.10.0 // indirect
	github.com/golang/protobuf v1.5.2 // indirect
	github.com/hashicorp/hcl v1.0.0 // indirect
	github.com/jmoiron/sqlx v1.3.4 // indirect
	github.com/joho/godotenv v1.4.0 // indirect
	github.com/josharian/intern v1.0.0 // indirect
	github.com/json-iterator/go v1.1.12 // indirect
	github.com/leodido/go-urn v1.2.1 // indirect
	github.com/lib/pq v1.10.4 // indirect
	github.com/magiconair/properties v1.8.6 // indirect
	github.com/mailru/easyjson v0.7.7 // indirect
	github.com/mattn/go-isatty v0.0.14 // indirect
	github.com/mitchellh/mapstructure v1.4.3 // indirect
	github.com/modern-go/concurrent v0.0.0-20180306012644-bacd9c7ef1dd // indirect
	github.com/modern-go/reflect2 v1.0.2 // indirect
	github.com/pelletier/go-toml v1.9.4 // indirect
	github.com/russross/blackfriday/v2 v2.1.0 // indirect
	github.com/shurcooL/sanitized_anchor_name v1.0.0 // indirect
	github.com/spf13/afero v1.8.1 // indirect
	github.com/spf13/cast v1.4.1 // indirect
	github.com/spf13/jwalterweatherman v1.1.0 // indirect
	github.com/spf13/pflag v1.0.5 // indirect
	github.com/spf13/viper v1.10.1 // indirect
	github.com/subosito/gotenv v1.2.0 // indirect
	github.com/swaggo/gin-swagger v1.4.1 // indirect
	github.com/swaggo/swag v1.8.0 // indirect
	github.com/ugorji/go/codec v1.2.6 // indirect
	github.com/urfave/cli/v2 v2.3.0 // indirect
	golang.org/x/crypto v0.0.0-20220214200702-86341886e292 // indirect
	golang.org/x/net v0.0.0-20220225172249-27dd8689420f // indirect
	golang.org/x/sys v0.0.0-20220227234510-4e6760a101f9 // indirect
	golang.org/x/text v0.3.7 // indirect
	golang.org/x/tools v0.1.9 // indirect
	google.golang.org/protobuf v1.27.1 // indirect
	gopkg.in/ini.v1 v1.66.4 // indirect
	gopkg.in/yaml.v2 v2.4.0 // indirect
)
